{
	"aururl": "https://aur.archlinux.org",
	"buildDir": "$HOME/.cache/yay",
	"editor": "/usr/bin/vim",
	"editorflags": "",
	"makepkgbin": "makepkg",
	"makepkgconf": "",
	"pacmanbin": "pacman",
	"pacmanconf": "/etc/pacman.conf",
	"tarbin": "bsdtar",
	"redownload": "no",
	"rebuild": "no",
	"answerclean": "yes",
	"answerdiff": "yes",
	"answeredit": "yes",
	"answerupgrade": "yes",
	"gitbin": "git",
	"gpgbin": "gpg",
	"gpgflags": "",
	"mflags": "",
	"sortby": "votes",
	"gitflags": "",
	"removemake": "no",
	"requestsplitn": 150,
	"sortmode": 0,
	"completionrefreshtime": 7,
	"sudoloop": true,
	"timeupdate": false,
	"devel": false,
	"cleanAfter": true,
	"gitclone": true,
	"provides": true,
	"pgpfetch": true,
	"upgrademenu": true,
	"cleanmenu": false,
	"diffmenu": false,
	"editmenu": false,
	"combinedupgrade": false,
	"useask": false
}
